{
  "@context": "\/api\/v1\/contexts\/Me",
  "@id": "\/api\/v1\/me?id=b1f4a5db-c560-4150-a3d1-e20a682515dc",
  "@type": "Me",
  "identifier": "b1f4a5db-c560-4150-a3d1-e20a682515dc",
  "email": "hello@hubkit.io",
  "projects": [
    {
      "identifier": "a48edeb7-a44d-437f-8f11-c83942d4d4eb",
      "name": "Hello project"
    }
  ]
}
